wave_clutch_2.csv

#Digilent WaveForms Oscilloscope Acquisition
#Device Name: Discovery2
#Serial Number: SN:210321AD91A7
#Date Time: 2023-04-16 04:13:23.159
#Sample rate: 40000Hz
#Samples: 8192
#Trigger: None
#Channel 1: Range: 1 V/div Offset: 0 V Attenuation: 1 X Sample Mode: Average

Time (s),Channel 1 (V)
-0.1024,0.9057843879789387
-0.102375,0.9504287653935168
-0.10235,0.9281065766862329
-0.102325,0.9392676710398798
-0.1023,0.9355473062553309
-0.102275,0.9392676710398798
-0.10225,0.9392676710398765
-0.102225,0.9318269414707818
-0.1022,0.9467084006089779
-0.102175,0.9095047527634877
-0.10215,0.9355473062553309
-0.102125,0.909504752763481
-0.1021,0.8946232936252917
-0.102075,0.8648603753488995
-0.10205,0.8425381866416054
-0.102025,0.8202159979343113
-0.102,0.7644105261660827
-0.101975,0.779291985304272
-0.10195,0.7086050543978407
-0.101925,0.7011643248287427
-0.1019,0.6788421361214486
-0.101875,0.6527995826296071
-0.10185,0.6565199474141544
-0.101825,0.6341977587068603
-0.1018,0.6825625009059976
-0.101775,0.6714014065523505
-0.10175,0.723486513536052
-0.101725,0.7569697965969779
-0.1017,0.7830123500888211
-0.101675,0.8127752683652132
-0.10165,0.8276567275034094
-0.101625,0.8685807401334537
-0.1016,0.8797418344870955
-0.101575,0.9169454823325858
-0.10155,0.9169454823325858
-0.101525,0.9467084006089779
-0.1015,0.9467084006089779
-0.101475,0.9355473062553309
-0.10145,0.9355473062553309
-0.101425,0.8983436584098407
-0.1014,0.8797418344870955
-0.101375,0.8536992809952644
-0.10135,0.8239363627188603
-0.101325,0.7978938092270171
-0.1013,0.771851255735174
-0.101275,0.7569697965969779
-0.10125,0.734647607889694
-0.101225,0.6974439600441936
-0.1012,0.6974439600441936
-0.101175,0.6639606769832525
-0.10115,0.6453588530605074
-0.101125,0.6267570291377708
-0.1011,0.6304773939223113
-0.101075,0.6007144756459192
-0.10105,0.5895533812922721
-0.101025,0.574671922154076
-0.101,0.5597904630158868
-0.100975,0.5486293686622329
-0.10095,0.5188664503858408
-0.100925,0.5114257208167428
-0.1009,0.4853831673248996
-0.100875,0.4705017081867103
-0.10085,0.4556202490485074
-0.100825,0.4258573307721153
-0.1008,0.4072555068493702
-0.100775,0.3886536829266251
-0.10075,0.3700518590038884
-0.100725,0.3551703998656839
-0.1007,0.3365685759429388
-0.100675,0.3328482111583898
-0.10065,0.3105260224510957
-0.100625,0.325407481589285
-0.1006,0.2882038337438016
-0.100575,0.2844834689592525
-0.10055,0.2770427393901545
-0.100525,0.2733223746056055
-0.1005,0.2435594563292269
-0.100475,0.2472798211137624
-0.10045,0.2175169028373702
-0.100425,0.1989150789146251
-0.1004,0.1951947141300761
-0.100375,0.1617114310691501
-0.10035,0.1654317958536839
-0.100325,0.1356688775772918
-0.1003,0.1356688775772918
-0.100275,0.1170670536545467
-0.10025,0.1133466888699994
-0.100225,0.1133466888699977
-0.1002,0.09846522973180161
-0.100175,0.1059059593008996
-0.10015,0.09102450016270357
-0.100125,0.1133466888699977
-0.1001,0.09846522973180161
-0.100075,0.1059059593008996
-0.10005,0.09846522973180161
-0.100025,0.1021855945163506
-0.1,0.09102450016270357
-0.09997499999999999,0.01661720447172319
-0.09995,0.009176474902625149
-0.099925,0.0389393931790173
-0.0999,0.09474486494725258
-0.09987500000000001,0.169152160638233
-0.09984999999999999,0.2286779971910173
-0.099825,0.2621612802519585
-0.0998,0.3142463872356447
-0.099775,0.3477296702965859
-0.09975000000000001,0.377492588572978
-0.09972499999999999,0.3886536829266369
-0.0997,0.4146962364184682
-0.099675,0.4332980603412133
-0.09965,0.4258573307721153
-0.09962500000000001,0.4370184251257623
-0.09959999999999999,0.4258573307721255
-0.099575,0.4481795194794094
-0.09955,0.4481795194794094
-0.099525,0.4556202490485074
-0.09950000000000001,0.4518998842639584
-0.09947499999999999,0.4742220729712542
-0.09945,0.4779424377558015
-0.099425,0.4630609786176055
-0.0994,0.4742220729712525
-0.099375,0.4667813434021545
-0.09934999999999999,0.4853831673248894
-0.099325,0.4630609786176055
-0.0993,0.4779424377558015
-0.099275,0.4667813434021545
-0.09925,0.4742220729712525
-0.09922499999999999,0.4667813434021494
-0.0992,0.4556202490485074
-0.099175,0.4481795194794094
-0.09915,0.4370184251257623
-0.099125,0.4370184251257623
-0.09909999999999999,0.4295776955566593
-0.099075,0.4184166012030172
-0.09905,0.3960944124957231
-0.099025,0.3886536829266251
-0.099,0.3998147772802721
-0.09897499999999999,0.384933318142071
-0.09895,0.373772223788429
-0.098925,0.358890764650233
-0.0989,0.358890764650233
-0.098875,0.3440093055120368
-0.09884999999999999,0.3477296702965774
-0.098825,0.3291278463738408
-0.0988,0.3291278463738408
-0.098775,0.3216871168047428
-0.09875,0.2993649280974486
-0.09872499999999999,0.3105260224510973
-0.0987,0.3142463872356447
-0.098675,0.3179667520201937
-0.09865,0.3105260224510957
-0.098625,0.3216871168047428
-0.09859999999999999,0.336568575942949
-0.098575,0.358890764650233
-0.09855,0.373772223788429
-0.098525,0.3886536829266251
-0.0985,0.3886536829266251
-0.09847499999999999,0.3886536829266318
-0.09845,0.4035351420648212
-0.098425,0.3998147772802721
-0.0984,0.4072555068493702
-0.098375,0.3998147772802721
-0.09835000000000001,0.4184166012030088
-0.098325,0.4146962364184682
-0.0983,0.4035351420648212
-0.098275,0.4109758716339192
-0.09825,0.384933318142076
-0.09822500000000001,0.3700518590038868
-0.0982,0.3402889407274878
-0.098175,0.3402889407274878
-0.09815,0.3254074815892918
-0.098125,0.3440093055120368
-0.09810000000000001,0.3254074815893002
-0.098075,0.3216871168047428
-0.09805,0.3402889407274878
-0.098025,0.3402889407274878
-0.098,0.3514500350811349
-0.09797500000000001,0.3551703998656822
-0.09795,0.3551703998656839
-0.097925,0.3291278463738408
-0.0979,0.3514500350811349
-0.097875,0.3440093055120368
-0.09785000000000001,0.3514500350811315
-0.097825,0.3551703998656839
-0.0978,0.3402889407274878
-0.097775,0.3402889407274878
-0.09775,0.3216871168047428
-0.09772500000000001,0.3216871168047428
-0.0977,0.3068056576665467
-0.097675,0.3179667520201937
-0.09765,0.3105260224510957
-0.097625,0.3291278463738408
-0.09760000000000001,0.2993649280974622
-0.097575,0.3179667520201937
-0.09755,0.3030852928819976
-0.097525,0.2770427393901545
-0.0975,0.2882038337438016
-0.09747500000000001,0.2733223746056123
-0.09744999999999999,0.2770427393901545
-0.097425,0.2696020098210565
-0.0974,0.2807631041747035
-0.097375,0.2547205506828604
-0.09735000000000001,0.2621612802519551
-0.09732499999999999,0.2398390915446643
-0.0973,0.2510001858983114
-0.097275,0.2472798211137624
-0.09725,0.2361187267601153
-0.09722500000000001,0.2472798211137573
-0.09719999999999999,0.2286779971910173
-0.097175,0.2323983619755663
-0.09715,0.2212372676219192
-0.097125,0.2212372676219192
-0.09710000000000001,0.2063558084837299
-0.09707499999999999,0.2100761732682722
-0.09705,0.1989150789146251
-0.097025,0.1951947141300761
-0.097,0.1914743493455271
-0.09697500000000001,0.2026354436991741
-0.09694999999999999,0.2063558084837231
-0.096925,0.1951947141300761
-0.0969,0.2100761732682722
-0.096875,0.2063558084837231
-0.09685000000000001,0.2137965380528212
-0.09682499999999999,0.2100761732682722
-0.0968,0.2137965380528212
-0.096775,0.2137965380528212
-0.09675,0.2137965380528212
-0.09672500000000001,0.1914743493455271
-0.09669999999999999,0.1803132549918699
-0.096675,0.1579910662845859
-0.09665,0.172872525422782
-0.096625,0.1579910662845859
-0.09660000000000001,0.1431096071463898
-0.09657499999999999,0.1579910662845791
-0.09655,0.1431096071463898
-0.096525,0.1617114310691349
-0.0965,0.169152160638233
-0.09647500000000001,0.18031325499188
-0.09644999999999999,0.1840336197764341
-0.096425,0.1951947141300761
-0.0964,0.2063558084837231
-0.096375,0.2175169028373702
-0.09635000000000001,0.2063558084837231
-0.09632499999999999,0.2398390915446677
-0.0963,0.2472798211137624
-0.096275,0.2435594563292133
-0.09625,0.2547205506828604
-0.096225,0.2510001858983114
-0.09619999999999999,0.2696020098210565
-0.096175,0.2696020098210565
-0.09615,0.2807631041747035
-0.096125,0.2770427393901545
-0.0961,0.2807631041747035
-0.09607499999999999,0.2844834689592559
-0.09605,0.2919241985283506
-0.096025,0.3030852928819976
-0.096,0.2956445633128996
-0.095975,0.3068056576665467
-0.09594999999999999,0.2807631041747018
-0.095925,0.2770427393901545
-0.0959,0.2696020098210565
-0.095875,0.2472798211137624
-0.09585,0.2212372676219192
-0.09582499999999999,0.2063558084837096
-0.0958,0.176592890207331
-0.095775,0.1579910662845859
-0.09575,0.1393892423618408
-0.095725,0.1505503367154879
-0.09569999999999999,0.1356688775772969
-0.095675,0.1468299719309389
-0.09565,0.1468299719309389
-0.095625,0.1170670536545467
-0.0956,0.1207874184390957
-0.09557499999999999,0.1133466888700062
-0.09555,0.1319485127927428
-0.095525,0.1170670536545467
-0.0955,0.1282281480081938
-0.095475,0.1245077832236447
-0.09544999999999999,0.1356688775772867
-0.095425,0.1245077832236447
-0.0954,0.1356688775772918
-0.095375,0.1282281480081938
-0.09535,0.1468299719309389
-0.09532499999999999,0.1245077832236498
-0.0953,0.1356688775772918
-0.095275,0.1207874184390957
-0.09525,0.1096263240854487
-0.095225,0.1133466888699977
-0.09520000000000001,0.09846522973180838
-0.095175,0.1133466888699977
-0.09515,0.1207874184390957
-0.095125,0.1245077832236447
-0.0951,0.1245077832236447
-0.09507500000000001,0.1356688775772867
-0.09505,0.1282281480081938
-0.095025,0.1393892423618408
-0.095,0.1245077832236447
-0.094975,0.1133466888699977
-0.09495000000000001,0.117067053654545
-0.094925,0.1133466888699977
-0.0949,0.1133466888699977
-0.094875,0.1170670536545467
-0.09485,0.1021855945163506
-0.09482500000000001,0.1133466888699926
-0.0948,0.1021855945163506
-0.094775,0.1096263240854487
-0.09475,0.09474486494725258
-0.094725,0.1096263240854487
-0.09470000000000001,0.09846522973180669
-0.094675,0.1021855945163506
-0.09465,0.09474486494725258
-0.094625,0.07614304102450749
-0.0946,0.08358377059360553
-0.09457500000000001,0.07242267623996355
-0.09455,0.07614304102450749
-0.094525,0.06126158188631141
-0.0945,0.07242267623995848
-0.094475,0.06498194667086044
-0.09445000000000001,0.07986340580904974
-0.094425,0.07242267623995848
-0.0944,0.07986340580905651
-0.094375,0.06870231145540945
-0.09435,0.07986340580905651
-0.09432500000000001,0.06498194667086721
-0.09429999999999999,0.07986340580905651
-0.094275,0.06126158188631141
-0.09425,0.07242267623995848
-0.094225,0.06870231145540945
-0.09420000000000001,0.05382085231722014
-0.09417499999999999,0.07614304102450749
-0.09415,0.0575412171017624
-0.094125,0.06498194667086044
-0.0941,0.05382085231721338
-0.09407500000000001,0.06126158188630802
-0.09404999999999999,0.05010048753266436
-0.094025,0.06126158188631141
-0.094,0.06498194667086044
-0.093975,0.0575412171017624
-0.09395000000000001,0.0724226762399517
-0.09392499999999999,0.0575412171017624
-0.0939,0.06126158188631141
-0.093875,0.0575412171017624
-0.09385,0.06870231145540945
-0.09382500000000001,0.06870231145540945
-0.09379999999999999,0.05010048753266436
-0.093775,0.05382085231721338
-0.09375,0.0575412171017624
-0.093725,0.06126158188631141
-0.09370000000000001,0.04638012274811534
-0.09367499999999999,0.05010048753266436
-0.09365,0.05010048753266436
-0.093625,0.03521902839446828
-0.0936,0.04638012274811534
-0.09357500000000001,0.0389393931790173
-0.09354999999999999,0.0389393931790173
-0.093525,0.0389393931790173
-0.0935,0.01661720447172319
-0.093475,0.0389393931790173
-0.09345000000000001,0.03149866360991926
-0.09342499999999999,0.01289683968717417
-0.0934,0.01289683968717417
-0.093375,-0.009425349020119945
-0.09335,0.001735745333527112
-0.09332500000000001,-0.001984619451021907
-0.09329999999999999,-0.005704984235567543
-0.093275,0.001735745333527112
-0.09325,-0.005704984235570926
-0.093225,-0.001984619451021907
-0.09320000000000001,-0.005704984235570926
-0.09317499999999999,0.001735745333522036
-0.09315,-0.009425349020119945
-0.093125,0.001735745333527112
-0.0931,0.001735745333527112
-0.093075,0.04265975796356632
-0.09304999999999999,0.09846522973183205
-0.093025,0.1654317958536839
-0.093,0.2510001858983114
-0.092975,0.3216871168047428
-0.09295,0.4035351420648212
-0.09292499999999999,0.4667813434021816
-0.0929,0.5263071799549388
-0.092875,0.574671922154076
-0.09285,0.6193162995686643
-0.092825,0.6565199474141544
-0.09279999999999999,0.6862828656905585
-0.092775,0.7123254191823897
-0.09275,0.7420883374587819
-0.092725,0.7569697965969779
-0.0927,0.768130890950625
-0.09267499999999999,0.7792919853042771
-0.09265,0.7904530796579191
-0.092625,0.7867327148733702
-0.0926,0.779291985304272
-0.092575,0.764410526166076
-0.09254999999999999,0.7458087022433207
-0.092525,0.7234865135360368
-0.0925,0.7048846896132916
-0.092475,0.6788421361214486
-0.09245,0.6565199474141544
-0.09242499999999999,0.6267570291377522
-0.0924,0.6044348404304681
-0.092375,0.5895533812922721
-0.09235,0.574671922154076
-0.092325,0.570951557369527
-0.09229999999999999,0.567231192584978
-0.092275,0.567231192584978
-0.09225,0.567231192584978
-0.092225,0.570951557369527
-0.0922,0.570951557369527
-0.09217500000000001,0.5672311925849797
-0.09215,0.5449090038776839
-0.092125,0.5374682743085858
-0.0921,0.5151460856012917
-0.092075,0.5039849912476446
-0.09205000000000001,0.4816628025403607
-0.092025,0.4742220729712525
-0.092,0.4593406138330565
-0.091975,0.4444591546948604
-0.09195,0.4370184251257623
-0.09192500000000001,0.4370184251257623
-0.0919,0.4221369659875662
-0.091875,0.4295776955566643
-0.09185,0.4258573307721153
-0.091825,0.4370184251257623
-0.09180000000000001,0.444459154694857
-0.091775,0.4481795194794094
-0.09175,0.5039849912476446
-0.091725,0.567231192584978
-0.0917,0.6900032304750956
-0.09167500000000001,0.7569697965969475
-0.09165,0.8350974570725074
-0.091625,0.8983436584098407
-0.0916,0.957869494962625
-0.091575,1.002513872377213
-0.09155000000000001,1.043437885007234
-0.091525,1.080641532852743
-0.0915,1.099243356775488
-0.091475,1.114124815913684
-0.09145,1.132726639836429
-0.09142500000000001,1.132726639836429
-0.0914,1.147608098974625
-0.091375,1.140167369405527
-0.09135,1.12900627505188
-0.091325,1.140167369405527
-0.09130000000000001,1.125285910267337
-0.091275,1.151328463759174
-0.09125,1.147608098974625
-0.091225,1.147608098974625
-0.0912,1.140167369405527
-0.09117500000000001,1.129006275051885
-0.09114999999999999,1.132726639836429
-0.091125,1.143887734190076
-0.0911,1.114124815913684
-0.091075,1.080641532852743
-0.09105000000000001,1.080641532852743
-0.09102499999999999,1.024836061084507
-0.091,1.006234237161762
-0.090975,0.9318269414707818
-0.09095,0.8909029288407426
-0.09092500000000001,0.8164956331497961
-0.09089999999999999,0.7458087022433308
-0.090875,0.6416384882759584
-0.09085,0.5486293686622329
-0.090825,0.4444591546948604
-0.09080000000000001,0.3663314942193665
-0.09077499999999999,0.2844834689592525
-0.09075,0.2249576324064682
-0.090725,0.172872525422782
-0.0907,0.1133466888699977
-0.09067500000000001,0.1245077832236447
-0.09064999999999999,0.1207874184390957
-0.090625,0.1505503367154879
-0.0906,0.1617114310691349
-0.090575,0.2323983619755663
-0.09055000000000001,0.2733223746056055
-0.09052499999999999,0.3105260224510957
-0.0905,0.3477296702965859
-0.090475,0.373772223788429
-0.09045,0.3960944124957231
-0.09042500000000001,0.3998147772802721
-0.09039999999999999,0.4221369659875544
-0.090375,0.3960944124957231
-0.09035,0.4146962364184682
-0.090325,0.3998147772802721
-0.09030000000000001,0.37005185900388
-0.09027499999999999,0.3812129533575236
-0.09025,0.373772223788429
-0.090225,0.384933318142076
-0.0902,0.384933318142076
-0.09017500000000001,0.381212953357527
-0.09014999999999999,0.3998147772802806
-0.090125,0.4184166012030172
-0.0901,0.4370184251257623
-0.090075,0.4407387899103113
-0.09005000000000001,0.4593406138330565
-0.09002499999999999,0.4779424377557999
-0.09,0.4742220729712525
-0.089975,0.4928238968939976
-0.08995,0.4742220729712525
-0.089925,0.4965442616785467
-0.08989999999999999,0.4891035321094367
-0.089875,0.4630609786176055
-0.08985,0.4630609786176055
-0.089825,0.4221369659875662
-0.0898,0.3998147772802721
-0.08977499999999999,0.3440093055120267
-0.08975,0.3216871168047428
-0.089725,0.2547205506828604
-0.0897,0.2026354436991741
-0.089675,0.1654317958536839
-0.08964999999999999,0.1170670536545298
-0.089625,0.07986340580905651
-0.0896,0.03521902839446828
-0.089575,0.02405793404082122
-0.08955,0.02405793404082122
-0.08952499999999999,0.0240579340408263
-0.0895,0.03521902839446828
-0.089475,0.06126158188631141
-0.08945,0.0575412171017624
-0.089425,0.07986340580905651
-0.08939999999999999,0.07614304102450749
-0.089375,0.07614304102450749
-0.08935,0.0575412171017624
-0.089325,0.08358377059360553
-0.0893,0.07242267623995848
-0.08927499999999999,0.05382085231720661
-0.08925,0.0389393931790173
-0.089225,0.02405793404082122
-0.0892,0.001735745333527112
-0.089175,-0.001984619451021907
-0.08914999999999999,0.01289683968717078
-0.089125,0.005456110118076131
-0.0891,0.02405793404082122
-0.089075,0.03521902839446828
-0.08905,0.03521902839446828
-0.08902500000000001,0.04265975796356293
-0.089,0.03149866360991926
-0.088975,0.02405793404082122
-0.08895,0.04265975796356632
-0.088925,0.01661720447172319
-0.08890000000000001,0.02033756925627051
-0.088875,0.0203375692562722
-0.08885,0.01661720447172319
-0.088825,0.03149866360991926
-0.0888,0.009176474902625149
-0.08877500000000001,0.02777829882536179
-0.08875,0.03149866360991926
-0.088725,0.01289683968717417
-0.0887,0.05010048753266436
-0.088675,0.03149866360991926
-0.08865000000000001,0.06126158188629788
-0.088625,0.04638012274811534
-0.0886,0.04265975796356632
-0.088575,0.06498194667086044
-0.08855,0.04265975796356632
-0.08852500000000001,0.07614304102449226
-0.0885,0.06498194667086044
-0.088475,0.09102450016270357
-0.08845,0.07614304102450749
-0.088425,0.09102450016270357
-0.08840000000000001,0.1282281480081768
-0.088375,0.1133466888699977
-0.08835,0.169152160638233
-0.088325,0.1356688775772918
-0.0883,0.1914743493455271
-0.08827500000000001,0.1840336197764324
-0.08825,0.169152160638233
-0.088225,0.2212372676219192
-0.0882,0.1914743493455271
-0.088175,0.2249576324064682
-0.08815000000000001,0.2323983619755629
-0.088125,0.2063558084837231
-0.0881,0.2733223746056055
-0.088075,0.2584409154674094
-0.08805,0.2584409154674094
-0.08802500000000001,0.2919241985283354
-0.08799999999999999,0.2658816450365075
-0.087975,0.3216871168047428
-0.08795,0.3105260224510957
-0.087925,0.3402889407274878
-0.08790000000000001,0.3588907646502245
-0.08787499999999999,0.373772223788429
-0.08785,0.3886536829266251
-0.087825,0.3886536829266251
-0.0878,0.4221369659875662
-0.08777500000000001,0.4072555068493769
-0.08774999999999999,0.4593406138330565
-0.087725,0.4444591546948604
-0.0877,0.4742220729712525
-0.087675,0.5077053560321937
-0.08765000000000001,0.5337479095240368
-0.08762499999999999,0.5821126517231741
-0.0876,0.6230366643532133
-0.087575,0.7011643248287427
-0.08755,0.7272068783205858
-0.08752500000000001,0.8313770922879583
-0.08749999999999999,0.8797418344870955
-0.087475,0.965310224531723
-0.08745,1.01367496673086
-0.087425,1.073200803283644
-0.08740000000000001,1.095522991990939
-0.08737499999999999,1.114124815913684
-0.08735,1.16620992289737
-0.087325,1.132726639836429
-0.0873,1.16620992289737
-0.08727500000000001,1.151328463759174
-0.08724999999999999,1.136447004620988
-0.087225,1.158769193328272
-0.0872,1.136447004620978
-0.087175,1.121565545482782
-0.08715000000000001,1.102963721560037
-0.08712499999999999,1.102963721560023
-0.0871,1.073200803283644
-0.087075,1.076921168068194
-0.08705,1.039717520222704
-0.08702500000000001,1.054598979360899
-0.08699999999999999,1.02855642586905
-0.086975,1.01367496673086
-0.08695,0.9839120484544681
-0.086925,0.965310224531723
-0.08690000000000001,0.972750954100821
-0.08687499999999999,0.928106576686243
-0.08685,0.9504287653935269
-0.086825,0.9206658471171348
-0.0868,0.9281065766862329
-0.086775,0.9206658471171348
-0.08674999999999999,0.9206658471171332
-0.086725,0.9169454823325858
-0.0867,0.8983436584098407
-0.086675,0.9169454823325858
-0.08665,0.8723011049179975
-0.08662499999999999,0.8797418344870888
-0.0866,0.8648603753488995
-0.086575,0.8388178218570563
